<?xml version="1.0" encoding="UTF-8"?>
<glyph name="degree" format="1">
  <advance width="354"/>
  <unicode hex="00B0"/>
  <outline>
    <contour>
      <point x="314" y="654" type="curve" smooth="yes"/>
      <point x="314" y="721"/>
      <point x="251" y="779"/>
      <point x="177" y="779" type="curve" smooth="yes"/>
      <point x="103" y="779"/>
      <point x="40" y="721"/>
      <point x="40" y="654" type="curve" smooth="yes"/>
      <point x="40" y="587"/>
      <point x="103" y="529"/>
      <point x="177" y="529" type="curve" smooth="yes"/>
      <point x="251" y="529"/>
      <point x="314" y="587"/>
    </contour>
    <contour>
      <point x="117" y="654" type="curve" smooth="yes"/>
      <point x="117" y="685"/>
      <point x="143" y="709"/>
      <point x="177" y="709" type="curve" smooth="yes"/>
      <point x="211" y="709"/>
      <point x="237" y="685"/>
      <point x="237" y="654" type="curve" smooth="yes"/>
      <point x="237" y="624"/>
      <point x="211" y="599"/>
      <point x="177" y="599" type="curve" smooth="yes"/>
      <point x="143" y="599"/>
      <point x="117" y="624"/>
    </contour>
  </outline>
</glyph>
