<?xml version="1.0" encoding="UTF-8"?>
<glyph name="emdash" format="1">
  <advance width="1014"/>
  <unicode hex="2014"/>
  <outline>
    <contour>
      <point x="50" y="262" type="line" smooth="yes"/>
      <point x="48" y="252"/>
      <point x="52" y="245"/>
      <point x="63" y="245" type="curve" smooth="yes"/>
      <point x="924" y="245" type="line" smooth="yes"/>
      <point x="933" y="245"/>
      <point x="938" y="249"/>
      <point x="940" y="258" type="curve" smooth="yes"/>
      <point x="963" y="345" type="line" smooth="yes"/>
      <point x="965" y="356"/>
      <point x="961" y="362"/>
      <point x="950" y="362" type="curve" smooth="yes"/>
      <point x="89" y="362" type="line" smooth="yes"/>
      <point x="80" y="362"/>
      <point x="75" y="358"/>
      <point x="73" y="349" type="curve" smooth="yes"/>
    </contour>
  </outline>
</glyph>
