<?xml version="1.0" encoding="UTF-8"?>
<glyph name="guilsinglright" format="1">
  <advance width="428"/>
  <unicode hex="203A"/>
  <outline>
    <contour>
      <point x="336" y="257" type="line" smooth="yes"/>
      <point x="339" y="260"/>
      <point x="341" y="264"/>
      <point x="341" y="267" type="curve" smooth="yes"/>
      <point x="341" y="271"/>
      <point x="339" y="275"/>
      <point x="336" y="278" type="curve" smooth="yes"/>
      <point x="142" y="478" type="line" smooth="yes"/>
      <point x="139" y="481"/>
      <point x="135" y="483"/>
      <point x="131" y="483" type="curve" smooth="yes"/>
      <point x="128" y="483"/>
      <point x="124" y="481"/>
      <point x="121" y="478" type="curve" smooth="yes"/>
      <point x="93" y="451" type="line" smooth="yes"/>
      <point x="89" y="447"/>
      <point x="87" y="444"/>
      <point x="87" y="440" type="curve" smooth="yes"/>
      <point x="87" y="437"/>
      <point x="89" y="433"/>
      <point x="92" y="430" type="curve" smooth="yes"/>
      <point x="221" y="267" type="line"/>
      <point x="93" y="103" type="line" smooth="yes"/>
      <point x="90" y="100"/>
      <point x="89" y="96"/>
      <point x="89" y="93" type="curve" smooth="yes"/>
      <point x="89" y="89"/>
      <point x="90" y="85"/>
      <point x="94" y="82" type="curve" smooth="yes"/>
      <point x="121" y="57" type="line" smooth="yes"/>
      <point x="124" y="53"/>
      <point x="128" y="52"/>
      <point x="131" y="52" type="curve" smooth="yes"/>
      <point x="135" y="52"/>
      <point x="138" y="53"/>
      <point x="142" y="57" type="curve" smooth="yes"/>
    </contour>
  </outline>
</glyph>
