<?xml version="1.0" encoding="UTF-8"?>
<glyph name="H" format="1">
  <advance width="898"/>
  <unicode hex="0048"/>
  <outline>
    <contour>
      <point x="449" y="375" type="move" name="center"/>
    </contour>
    <contour>
      <point x="449" y="750" type="move" name="top"/>
    </contour>
    <contour>
      <point x="779" y="594" type="line" smooth="yes"/>
      <point x="779" y="647"/>
      <point x="796" y="687"/>
      <point x="847" y="689" type="curve"/>
      <point x="853" y="689" type="line" smooth="yes"/>
      <point x="862" y="689"/>
      <point x="868" y="695"/>
      <point x="868" y="704" type="curve" smooth="yes"/>
      <point x="868" y="735" type="line" smooth="yes"/>
      <point x="868" y="744"/>
      <point x="862" y="750"/>
      <point x="853" y="750" type="curve" smooth="yes"/>
      <point x="545" y="750" type="line" smooth="yes"/>
      <point x="535" y="750"/>
      <point x="530" y="744"/>
      <point x="530" y="735" type="curve" smooth="yes"/>
      <point x="530" y="704" type="line" smooth="yes"/>
      <point x="530" y="695"/>
      <point x="535" y="689"/>
      <point x="545" y="689" type="curve" smooth="yes"/>
      <point x="552" y="689" type="line"/>
      <point x="603" y="687"/>
      <point x="619" y="647"/>
      <point x="619" y="594" type="curve" smooth="yes"/>
      <point x="619" y="424" type="line"/>
      <point x="278" y="424" type="line"/>
      <point x="278" y="594" type="line" smooth="yes"/>
      <point x="278" y="647"/>
      <point x="294" y="687"/>
      <point x="345" y="689" type="curve"/>
      <point x="352" y="689" type="line" smooth="yes"/>
      <point x="362" y="689"/>
      <point x="367" y="695"/>
      <point x="367" y="704" type="curve" smooth="yes"/>
      <point x="367" y="735" type="line" smooth="yes"/>
      <point x="367" y="744"/>
      <point x="362" y="750"/>
      <point x="352" y="750" type="curve" smooth="yes"/>
      <point x="45" y="750" type="line" smooth="yes"/>
      <point x="35" y="750"/>
      <point x="30" y="744"/>
      <point x="30" y="735" type="curve" smooth="yes"/>
      <point x="30" y="704" type="line" smooth="yes"/>
      <point x="30" y="695"/>
      <point x="35" y="689"/>
      <point x="45" y="689" type="curve" smooth="yes"/>
      <point x="50" y="689" type="line"/>
      <point x="101" y="687"/>
      <point x="118" y="647"/>
      <point x="118" y="594" type="curve" smooth="yes"/>
      <point x="118" y="155" type="line" smooth="yes"/>
      <point x="118" y="102"/>
      <point x="101" y="62"/>
      <point x="50" y="60" type="curve"/>
      <point x="45" y="60" type="line" smooth="yes"/>
      <point x="35" y="60"/>
      <point x="30" y="54"/>
      <point x="30" y="45" type="curve" smooth="yes"/>
      <point x="30" y="15" type="line" smooth="yes"/>
      <point x="30" y="5"/>
      <point x="35" y="-7"/>
      <point x="45" y="-7" type="curve" smooth="yes"/>
      <point x="352" y="-7" type="line" smooth="yes"/>
      <point x="362" y="-7"/>
      <point x="367" y="5"/>
      <point x="367" y="15" type="curve" smooth="yes"/>
      <point x="367" y="45" type="line" smooth="yes"/>
      <point x="367" y="54"/>
      <point x="362" y="60"/>
      <point x="352" y="60" type="curve" smooth="yes"/>
      <point x="345" y="60" type="line"/>
      <point x="294" y="62"/>
      <point x="278" y="102"/>
      <point x="278" y="155" type="curve" smooth="yes"/>
      <point x="278" y="344" type="line"/>
      <point x="619" y="344" type="line"/>
      <point x="619" y="155" type="line" smooth="yes"/>
      <point x="619" y="102"/>
      <point x="603" y="62"/>
      <point x="552" y="60" type="curve"/>
      <point x="545" y="60" type="line" smooth="yes"/>
      <point x="535" y="60"/>
      <point x="530" y="54"/>
      <point x="530" y="45" type="curve" smooth="yes"/>
      <point x="530" y="15" type="line" smooth="yes"/>
      <point x="530" y="5"/>
      <point x="535" y="-3"/>
      <point x="545" y="-3" type="curve" smooth="yes"/>
      <point x="853" y="-3" type="line" smooth="yes"/>
      <point x="862" y="-3"/>
      <point x="868" y="5"/>
      <point x="868" y="15" type="curve" smooth="yes"/>
      <point x="868" y="45" type="line" smooth="yes"/>
      <point x="868" y="54"/>
      <point x="862" y="60"/>
      <point x="853" y="60" type="curve" smooth="yes"/>
      <point x="847" y="60" type="line"/>
      <point x="796" y="62"/>
      <point x="779" y="102"/>
      <point x="779" y="155" type="curve" smooth="yes"/>
    </contour>
  </outline>
</glyph>
