<?xml version="1.0" encoding="UTF-8"?>
<glyph name="kcommaaccent" format="1">
  <advance width="631"/>
  <unicode hex="0137"/>
  <outline>
    <contour>
      <point x="607" y="60" type="line" smooth="yes"/>
      <point x="594" y="60"/>
      <point x="583" y="68"/>
      <point x="560" y="91" type="curve" smooth="yes"/>
      <point x="347" y="306" type="line"/>
      <point x="424" y="374" type="line" smooth="yes"/>
      <point x="477" y="421"/>
      <point x="497" y="440"/>
      <point x="537" y="440" type="curve" smooth="yes"/>
      <point x="549" y="440" type="line" smooth="yes"/>
      <point x="557" y="440"/>
      <point x="562" y="445"/>
      <point x="562" y="455" type="curve" smooth="yes"/>
      <point x="562" y="485" type="line" smooth="yes"/>
      <point x="561" y="494"/>
      <point x="557" y="500"/>
      <point x="547" y="500" type="curve" smooth="yes"/>
      <point x="324" y="500" type="line" smooth="yes"/>
      <point x="314" y="500"/>
      <point x="309" y="494"/>
      <point x="309" y="485" type="curve" smooth="yes"/>
      <point x="309" y="455" type="line" smooth="yes"/>
      <point x="308" y="445"/>
      <point x="314" y="440"/>
      <point x="322" y="440" type="curve" smooth="yes"/>
      <point x="353" y="440" type="line" smooth="yes"/>
      <point x="367" y="440"/>
      <point x="372" y="434"/>
      <point x="372" y="427" type="curve" smooth="yes"/>
      <point x="372" y="422"/>
      <point x="369" y="416"/>
      <point x="365" y="412" type="curve" smooth="yes"/>
      <point x="242" y="302" type="line"/>
      <point x="242" y="798" type="line" smooth="yes"/>
      <point x="242" y="799"/>
      <point x="242" y="800"/>
      <point x="240" y="800" type="curve" smooth="yes"/>
      <point x="238" y="800" type="line" smooth="yes"/>
      <point x="236" y="799"/>
      <point x="235" y="798"/>
      <point x="233" y="797" type="curve" smooth="yes"/>
      <point x="207" y="778"/>
      <point x="151" y="740"/>
      <point x="46" y="705" type="curve" smooth="yes"/>
      <point x="36" y="701"/>
      <point x="31" y="700"/>
      <point x="31" y="691" type="curve" smooth="yes"/>
      <point x="31" y="657" type="line" smooth="yes"/>
      <point x="31" y="651"/>
      <point x="33" y="646"/>
      <point x="43" y="645" type="curve" smooth="yes"/>
      <point x="98" y="639"/>
      <point x="102" y="583"/>
      <point x="102" y="530" type="curve" smooth="yes"/>
      <point x="102" y="155" type="line" smooth="yes"/>
      <point x="103" y="100"/>
      <point x="78" y="60"/>
      <point x="30" y="60" type="curve" smooth="yes"/>
      <point x="20" y="60"/>
      <point x="15" y="54"/>
      <point x="15" y="45" type="curve" smooth="yes"/>
      <point x="15" y="15" type="line" smooth="yes"/>
      <point x="15" y="5"/>
      <point x="20" y="9"/>
      <point x="30" y="9" type="curve" smooth="yes"/>
      <point x="296" y="9" type="line" smooth="yes"/>
      <point x="306" y="9"/>
      <point x="311" y="5"/>
      <point x="311" y="15" type="curve" smooth="yes"/>
      <point x="311" y="45" type="line" smooth="yes"/>
      <point x="311" y="54"/>
      <point x="306" y="60"/>
      <point x="296" y="60" type="curve" smooth="yes"/>
      <point x="247" y="60"/>
      <point x="243" y="76"/>
      <point x="243" y="155" type="curve" smooth="yes"/>
      <point x="243" y="214" type="line"/>
      <point x="263" y="232" type="line"/>
      <point x="396" y="89" type="line" smooth="yes"/>
      <point x="401" y="84"/>
      <point x="403" y="79"/>
      <point x="403" y="75" type="curve" smooth="yes"/>
      <point x="403" y="65"/>
      <point x="389" y="60"/>
      <point x="377" y="60" type="curve" smooth="yes"/>
      <point x="361" y="60" type="line" smooth="yes"/>
      <point x="354" y="60"/>
      <point x="348" y="55"/>
      <point x="348" y="46" type="curve" smooth="yes"/>
      <point x="348" y="45" type="line"/>
      <point x="348" y="15" type="line" smooth="yes"/>
      <point x="348" y="5"/>
      <point x="353" y="9"/>
      <point x="363" y="9" type="curve" smooth="yes"/>
      <point x="609" y="9" type="line" smooth="yes"/>
      <point x="619" y="9"/>
      <point x="623" y="5"/>
      <point x="624" y="15" type="curve" smooth="yes"/>
      <point x="624" y="45" type="line" smooth="yes"/>
      <point x="624" y="54"/>
      <point x="619" y="60"/>
      <point x="611" y="60" type="curve" smooth="yes"/>
    </contour>
    <contour>
      <point x="356" y="-56" type="line" smooth="yes"/>
      <point x="343" y="-43"/>
      <point x="330" y="-37"/>
      <point x="317" y="-37" type="curve" smooth="yes"/>
      <point x="304" y="-37"/>
      <point x="291" y="-43"/>
      <point x="278" y="-55" type="curve" smooth="yes"/>
      <point x="239" y="-94" type="line" smooth="yes"/>
      <point x="226" y="-107"/>
      <point x="220" y="-120"/>
      <point x="220" y="-133" type="curve" smooth="yes"/>
      <point x="220" y="-146"/>
      <point x="226" y="-159"/>
      <point x="239" y="-172" type="curve" smooth="yes"/>
      <point x="278" y="-211" type="line" smooth="yes"/>
      <point x="284" y="-217"/>
      <point x="286" y="-225"/>
      <point x="286" y="-234" type="curve" smooth="yes"/>
      <point x="286" y="-265"/>
      <point x="255" y="-313"/>
      <point x="207" y="-350" type="curve"/>
      <point x="236" y="-363"/>
      <point x="242" y="-365"/>
      <point x="247" y="-365" type="curve" smooth="yes"/>
      <point x="270" y="-365"/>
      <point x="396" y="-258"/>
      <point x="413" y="-179" type="curve" smooth="yes"/>
      <point x="415" y="-168"/>
      <point x="416" y="-159"/>
      <point x="416" y="-150" type="curve" smooth="yes"/>
      <point x="416" y="-124"/>
      <point x="407" y="-107"/>
      <point x="395" y="-94" type="curve" smooth="yes"/>
    </contour>
  </outline>
</glyph>
