<?xml version="1.0" encoding="UTF-8"?>
<glyph name="zero" format="1">
  <advance width="600"/>
  <unicode hex="0030"/>
  <outline>
    <contour>
      <point x="26" y="266" type="curve" smooth="yes"/>
      <point x="26" y="109"/>
      <point x="149" y="-18"/>
      <point x="301" y="-18" type="curve" smooth="yes"/>
      <point x="454" y="-18"/>
      <point x="577" y="109"/>
      <point x="577" y="266" type="curve" smooth="yes"/>
      <point x="577" y="423"/>
      <point x="454" y="550"/>
      <point x="301" y="550" type="curve" smooth="yes"/>
      <point x="149" y="550"/>
      <point x="26" y="422"/>
    </contour>
    <contour>
      <point x="436" y="268" type="curve" smooth="yes"/>
      <point x="436" y="166"/>
      <point x="396" y="52"/>
      <point x="304" y="52" type="curve" smooth="yes"/>
      <point x="212" y="52"/>
      <point x="166" y="162"/>
      <point x="166" y="263" type="curve" smooth="yes"/>
      <point x="166" y="365"/>
      <point x="209" y="474"/>
      <point x="301" y="474" type="curve" smooth="yes"/>
      <point x="393" y="474"/>
      <point x="436" y="369"/>
    </contour>
  </outline>
</glyph>
