<?xml version="1.0" encoding="UTF-8" standalone="no"?>
<!-- Created with Inkscape (http://www.inkscape.org/) -->

<svg
   xmlns:dc="http://purl.org/dc/elements/1.1/"
   xmlns:cc="http://creativecommons.org/ns#"
   xmlns:rdf="http://www.w3.org/1999/02/22-rdf-syntax-ns#"
   xmlns:svg="http://www.w3.org/2000/svg"
   xmlns="http://www.w3.org/2000/svg"
   xmlns:xlink="http://www.w3.org/1999/xlink"
   xmlns:sodipodi="http://sodipodi.sourceforge.net/DTD/sodipodi-0.dtd"
   xmlns:inkscape="http://www.inkscape.org/namespaces/inkscape"
   width="210mm"
   height="297mm"
   id="svg2"
   version="1.1"
   inkscape:version="0.48.4 r9939"
   sodipodi:docname="a.svg">
  <defs
     id="defs4">
    <inkscape:path-effect
       effect="spiro"
       id="path-effect3937"
       is_visible="true" />
    <inkscape:path-effect
       effect="spiro"
       id="path-effect3933"
       is_visible="true" />
    <inkscape:path-effect
       effect="skeletal"
       id="path-effect3857"
       is_visible="true"
       pattern="m 429.39041,447.10994 c -8.55958,-2.22681 -17.09903,-5.70543 -25.91001,-4.93616 -2.13296,0.18622 -4.27923,0.62202 -6.39725,0.30869 -1.05902,-0.15666 -2.10235,-0.50738 -2.97675,-1.12502 -0.8744,-0.61764 -1.5705,-1.51606 -1.8391,-2.55236 -0.17673,-0.68185 -0.16565,-1.40832 0.008,-2.09094 0.17374,-0.68262 0.50784,-1.32118 0.95055,-1.86905 0.88543,-1.09574 2.18582,-1.80825 3.55163,-2.15352 2.73161,-0.69053 5.59247,0.0104 8.36918,0.48826 11.58258,1.99354 23.42934,0.0507 35.07478,-1.53493 11.40924,-1.55345 22.87266,-2.76417 34.37575,-3.27678 26.39313,-1.17616 52.80745,1.32758 79.04444,4.42616 19.95087,2.35619 40.05702,5.06269 60.06232,3.22511 1.30214,-0.11961 2.60749,-0.25858 3.91424,-0.21086 0.94053,0.0344 1.91177,0.17792 2.70275,0.68796 0.39549,0.25501 0.73745,0.60084 0.95561,1.0178 0.21815,0.41696 0.30725,0.90665 0.21408,1.36791 -0.0729,0.3609 -0.25434,0.69566 -0.49745,0.97217 -0.24312,0.27652 -0.54641,0.49642 -0.8731,0.66624 -0.65336,0.33965 -1.38905,0.47917 -2.1116,0.62122 -4.53698,0.89197 -9.01913,2.04159 -13.54002,3.0118 -21.48597,4.61101 -43.60983,5.12817 -65.57812,5.67833 -21.51273,0.53875 -43.0264,1.12597 -64.54568,1.21643 -15.08622,0.0634 -30.35397,-0.14011 -44.95433,-3.93846"
       copytype="single_stretched"
       prop_scale="1"
       scale_y_rel="false"
       spacing="0"
       normal_offset="0"
       tang_offset="0"
       prop_units="false"
       vertical_pattern="false"
       fuse_tolerance="0" />
    <inkscape:path-effect
       effect="spiro"
       id="path-effect3822"
       is_visible="true" />
    <inkscape:path-effect
       effect="skeletal"
       id="path-effect3017"
       is_visible="true"
       pattern="m 364.16,399.11256 c -8.53286,-2.33372 -17.09655,-5.697 -25.91001,-4.93616 -2.12971,0.18385 -4.27366,0.60898 -6.3877,0.29229 -1.05702,-0.15834 -2.09801,-0.50869 -2.97262,-1.12304 -0.87461,-0.61434 -1.57392,-1.50615 -1.85278,-2.53794 -0.18491,-0.68416 -0.18206,-1.41505 -0.0152,-2.10383 0.16687,-0.68878 0.4955,-1.33516 0.93482,-1.89128 0.87864,-1.11222 2.18113,-1.84231 3.55357,-2.19651 1.37244,-0.3542 2.81563,-0.35412 4.22382,-0.19274 1.40819,0.16138 2.79266,0.48053 4.18242,0.75911 20.17455,4.04395 40.9236,-0.48349 61.33875,-3.05016 21.09747,-2.65245 42.45271,-3.19897 63.66762,-1.76155 9.02243,0.61132 18.01625,1.58 27.02158,2.40585 31.21098,2.86226 62.5613,4.00839 93.90243,4.23526 5.52409,0.04 11.06759,0.0527 16.54115,0.7993 0.91532,0.12484 1.85606,0.28026 2.64029,0.76852 0.39211,0.24412 0.73787,0.57146 0.96769,0.97213 0.22982,0.40066 0.33837,0.87707 0.26446,1.33302 -0.0593,0.36594 -0.23356,0.70868 -0.47385,0.99097 -0.24029,0.28229 -0.54486,0.50588 -0.87416,0.67615 -0.6586,0.34053 -1.40324,0.46806 -2.13414,0.59251 -4.68823,0.79829 -9.36699,1.65111 -14.0451,2.50672 -23.38062,4.27623 -46.86746,8.63544 -70.62888,9.21387 -19.67057,0.47885 -39.31421,-1.64067 -58.98984,-1.81403 -31.79501,-0.28014 -64.28447,4.44968 -94.95433,-3.93846"
       copytype="single_stretched"
       prop_scale="1"
       scale_y_rel="false"
       spacing="0"
       normal_offset="0"
       tang_offset="0"
       prop_units="false"
       vertical_pattern="false"
       fuse_tolerance="0" />
    <inkscape:path-effect
       effect="spiro"
       id="path-effect3003"
       is_visible="true" />
    <inkscape:path-effect
       effect="spiro"
       id="path-effect2999"
       is_visible="true" />
    <inkscape:path-effect
       effect="spiro"
       id="path-effect2995"
       is_visible="true" />
    <inkscape:path-effect
       effect="spiro"
       id="path-effect2991"
       is_visible="true" />
    <inkscape:path-effect
       effect="spiro"
       id="path-effect3003-9"
       is_visible="true" />
    <inkscape:path-effect
       effect="spiro"
       id="path-effect3933-7"
       is_visible="true" />
    <inkscape:path-effect
       effect="spiro"
       id="path-effect3937-5"
       is_visible="true" />
  </defs>
  <sodipodi:namedview
     id="base"
     pagecolor="#ffffff"
     bordercolor="#666666"
     borderopacity="1.0"
     inkscape:pageopacity="0.0"
     inkscape:pageshadow="2"
     inkscape:zoom="5.6"
     inkscape:cx="247.64203"
     inkscape:cy="863.89583"
     inkscape:document-units="px"
     inkscape:current-layer="layer1"
     showgrid="false"
     inkscape:window-width="1276"
     inkscape:window-height="775"
     inkscape:window-x="0"
     inkscape:window-y="21"
     inkscape:window-maximized="1" />
  <metadata
     id="metadata7">
    <rdf:RDF>
      <cc:Work
         rdf:about="">
        <dc:format>image/svg+xml</dc:format>
        <dc:type
           rdf:resource="http://purl.org/dc/dcmitype/StillImage" />
        <dc:title />
      </cc:Work>
    </rdf:RDF>
  </metadata>
  <g
     inkscape:label="Calque 1"
     inkscape:groupmode="layer"
     id="layer1">
    <text
       xml:space="preserve"
       style="font-size:22.38875198px;font-style:normal;font-variant:normal;font-weight:500;font-stretch:normal;text-indent:0;text-align:start;text-decoration:none;line-height:125%;letter-spacing:0px;word-spacing:0px;text-transform:none;direction:ltr;block-progression:tb;writing-mode:lr-tb;text-anchor:start;baseline-shift:baseline;color:#000000;fill:#000000;stroke:none;stroke-width:0.99999994px;marker:none;visibility:visible;display:inline;overflow:visible;enable-background:accumulate;font-family:Inconsolata;-inkscape-font-specification:Inconsolata Medium"
       x="-119.32865"
       y="479.7937"
       id="text2985"
       sodipodi:linespacing="125%"
       transform="scale(0.99865271,1.0013491)"><tspan
         sodipodi:role="line"
         id="tspan2987"
         x="-119.32865"
         y="479.7937"
         style="font-size:201.4987793px;font-style:normal;font-variant:normal;font-weight:600;font-stretch:normal;fill:#000000;stroke:none;font-family:YoungSerif;-inkscape-font-specification:YoungSerif Semi-Bold">loemntdasœ</tspan></text>
    <image
       y="144.12592"
       x="-453.38834"
       id="image3928"
       xlink:href="file:///home/svilayphiou/work/VJ14/windsor-48607.png"
       height="78"
       width="730" />
    <path
       style="fill:#000000;stroke:none;stroke-width:0.99999994000000003"
       d="m 189.13155,173.913 c -0.4721,0.38253 -0.93997,0.78127 -1.48466,1.05057 -0.27235,0.13465 -0.56299,0.23572 -0.86372,0.27889 -0.30073,0.0432 -0.61201,0.0273 -0.90124,-0.0657 -0.41187,-0.13244 -0.76632,-0.41928 -1.01116,-0.77597 -0.24484,-0.35669 -0.38365,-0.78011 -0.43312,-1.20991 -0.0692,-0.60138 0.0333,-1.21697 0.2591,-1.77863 0.2258,-0.56166 0.57226,-1.07063 0.98473,-1.51371 0.82493,-0.88616 1.89569,-1.50086 2.97245,-2.05437 3.42583,-1.76106 7.12315,-3.04836 10.94861,-3.49947 2.17237,-0.25617 4.3911,-0.23984 6.52787,0.22817 2.13677,0.46801 4.19206,1.40105 5.83876,2.8409 2.70382,2.36418 4.09862,5.8571 5.27226,9.25159 1.44354,4.17511 2.69688,8.41311 4.04844,12.6189 0.81273,2.52908 1.661,5.04657 2.49497,7.56872 0.32038,0.96892 0.65168,1.96278 1.29785,2.75266 0.32309,0.39494 0.72409,0.73231 1.18917,0.94222 0.46508,0.20991 0.99638,0.28712 1.49405,0.17451 0.50291,-0.1138 0.94205,-0.40868 1.40219,-0.64136 0.23008,-0.11633 0.46934,-0.21851 0.72122,-0.27352 0.25188,-0.055 0.51802,-0.0612 0.76515,0.0122 0.25673,0.0763 0.4855,0.23766 0.6534,0.44631 0.1679,0.20865 0.27576,0.46311 0.32149,0.727 0.0915,0.52777 -0.0652,1.07673 -0.34303,1.5347 -0.27857,0.45924 -0.67358,0.83943 -1.10799,1.15534 -0.4344,0.31591 -0.9094,0.57109 -1.38547,0.81981 -1.30729,0.68299 -2.65279,1.3314 -4.09604,1.63554 -1.85788,0.39152 -3.82692,0.18634 -5.59097,-0.51588 -1.76405,-0.70221 -3.32183,-1.89185 -4.51895,-3.36559 -1.27201,-1.56594 -2.13349,-3.42871 -2.78057,-5.33959 -0.64707,-1.91088 -1.09094,-3.88328 -1.61184,-5.83234 -0.90213,-3.37553 -2.03671,-6.6854 -3.28031,-9.95059 -0.90239,-2.36929 -1.88349,-4.75295 -3.46148,-6.73733 -0.78899,-0.9922 -1.72495,-1.87585 -2.80518,-2.53923 -1.08023,-0.66337 -2.30818,-1.10208 -3.57247,-1.19444 -1.46197,-0.1068 -2.9325,0.25066 -4.26538,0.86075 -1.33288,0.61008 -2.53921,1.46603 -3.67813,2.38887"
       id="path3931"
       inkscape:path-effect="#path-effect3933-7"
       inkscape:original-d="m 189.13155,173.913 c -1.11362,0.26604 -2.40207,2.03355 -3.24962,1.26374 -1.02551,-0.93148 -2.17855,-0.81106 -1.44428,-1.98588 1.59983,-2.5597 -0.42116,-3.89652 4.21628,-5.34671 4.63745,-1.4502 7.98983,-4.09698 10.94861,-3.49947 8.97017,1.81144 7.53049,-4.69989 12.36663,3.06907 0.76212,1.22432 3.32228,4.03963 5.27226,9.25159 1.94998,5.21196 3.56057,10.47361 4.04844,12.6189 0.48785,2.14529 1.55563,5.92503 2.49497,7.56872 0.93936,1.64368 2.56268,4.13012 3.98107,3.86939 11.78287,-2.16598 1.53091,-2.00087 2.88856,-0.90268 0.96455,0.78023 1.22885,1.62049 0.63186,2.70801 -0.77836,1.41797 -0.90059,1.266 -2.49346,1.97515 -1.59287,0.70913 -2.48999,1.82807 -4.09604,1.63554 -3.59744,-0.43123 -7.84416,-1.05412 -10.10992,-3.88147 -2.19602,-2.74031 -3.47107,-7.33148 -4.39241,-11.17193 -0.92134,-3.84044 -1.48898,-6.93017 -3.28031,-9.95059 -2.3479,-3.95887 -5.33965,-9.50148 -9.83913,-10.471 -3.34492,-0.72075 -4.61546,2.45452 -7.94351,3.24962 z"
       inkscape:connector-curvature="0"
       sodipodi:nodetypes="sssssssssssssssssss" />
    <path
       style="fill:#000000;stroke:none"
       d="m 209.17088,181.58571 c -7.05537,-2.98464 -15.58333,-2.1931 -21.96885,2.03908 -1.70173,1.12786 -3.26545,2.49256 -4.46406,4.14522 -1.19861,1.65266 -2.02128,3.60547 -2.18181,5.6407 -0.13075,1.65766 0.18112,3.34225 0.85144,4.86397 0.67031,1.52171 1.69433,2.88049 2.93979,3.98221 3.05795,2.70503 7.25123,3.74457 11.31852,4.09869 3.8165,0.33229 7.758,0.12296 11.30966,-1.31292 2.76412,-1.11749 5.22763,-2.96894 7.06973,-5.31325 l -4.68797,-12.51638 c 0.48188,1.1544 0.80524,2.37485 0.95818,3.61641 0.16137,1.30999 0.13129,2.65405 -0.20455,3.93049 -0.33585,1.27645 -0.98821,2.48412 -1.95415,3.3836 -1.40387,1.30729 -3.37452,1.87749 -5.29258,1.90713 -1.67538,0.0259 -3.36389,-0.33501 -4.85091,-1.10725 -1.09139,-0.56679 -2.07336,-1.35643 -2.81582,-2.3368 -0.74245,-0.98038 -1.24005,-2.15377 -1.37206,-3.37645 -0.11566,-1.07127 0.0506,-2.16946 0.46084,-3.16578 0.41029,-0.99632 1.06238,-1.88978 1.87395,-2.59855 1.41901,-1.23927 3.28816,-1.88721 5.16431,-2.05886 1.93669,-0.17719 3.9595,0.14791 5.61057,1.17558 1.35135,0.84112 2.4122,2.13974 2.96677,3.63175 l -0.731,-8.62859"
       id="path3935"
       inkscape:path-effect="#path-effect3937-5"
       inkscape:original-d="m 209.17088,181.58571 c 0,0 -18.25227,0.91967 -21.96885,2.03908 -5.52952,1.6655 -5.458,4.13451 -6.64587,9.78592 -1.2361,5.88087 -1.74668,6.51285 3.79123,8.84618 3.59454,1.51449 5.28914,4.90608 11.31852,4.09869 3.01468,-0.4037 6.98064,2.60025 11.30966,-1.31292 2.06216,-1.86407 7.06973,-5.31325 7.06973,-5.31325 l -4.68797,-12.51638 c 0,0 1.05133,1.85721 0.95818,3.61641 -0.0932,1.7592 -0.43793,7.34897 -2.1587,7.31409 -0.98428,-0.0199 -3.33982,1.67468 -5.29258,1.90713 -1.95275,0.23245 -3.29163,-0.35061 -4.85091,-1.10725 -3.11854,-1.51327 -5.00027,-5.21676 -4.18788,-5.71325 1.62482,-0.99294 1.97371,-5.76433 2.33479,-5.76433 0.0903,0 12.09276,-3.1923 5.16431,-2.05886 -2.24953,0.36801 4.55659,0.94521 5.61057,1.17558 2.10797,0.46073 2.96677,3.63175 2.96677,3.63175 z"
       inkscape:connector-curvature="0"
       sodipodi:nodetypes="csssssccsssssssscc" />
    <rect
       style="color:#000000;fill:#ffffff;fill-opacity:1;fill-rule:nonzero;stroke:none;stroke-width:1;marker:none;visibility:visible;display:inline;overflow:visible;enable-background:accumulate"
       id="rect3210"
       width="53.916893"
       height="56.821079"
       x="233.85031"
       y="152.82133" />
    <use
       x="0"
       y="0"
       xlink:href="#path3931"
       id="use3206"
       transform="translate(56.814285,-0.64111106)"
       width="744.09448"
       height="1052.3622"
       style="fill:#000000" />
    <use
       x="0"
       y="0"
       xlink:href="#path3935"
       id="use3208"
       transform="translate(56.814285,-0.64111106)"
       width="744.09448"
       height="1052.3622"
       style="fill:#000000" />
    <use
       x="0"
       y="0"
       xlink:href="#path3931"
       id="use3980"
       transform="matrix(2.5368582,0,0,2.5368582,-717.45025,-41.14238)"
       width="744.09448"
       height="1052.3622" />
    <use
       x="0"
       y="0"
       xlink:href="#path3935"
       id="use3982"
       transform="matrix(2.5368582,0,0,2.5368582,-717.45025,-41.14238)"
       width="744.09448"
       height="1052.3622" />
  </g>
</svg>
